{"photos":{"page":1,"pages":213259,"perpage":1,"total":"213259","photo":[{"id":"35133224252","owner":"155837775@N05","secret":"d84cea1eaa","server":"4199","farm":5,"title":"Monkey forest, Bali."}]},"stat":"ok"}
